prj/xilinx/template.sim/sim_1/behav/xsim/usb.vcd
$date
   Fri Nov 17 17:08:02 2023
$end
$version
  2018.3
$end
$timescale
  1ps
$end
$scope module usb_tb $end
$var reg 1 ! sys_clk $end
$var reg 1 " sys_rst $end
$var wire 1 # usb_oe_n $end
$var wire 1 $ usb_rd_n $end
$var wire 1 % usb_wr_n $end
$var wire 8 & usb_data_out [7:0] $end
$var wire 1 ' usb_siwu_n $end
$var reg 1 ( usb_rxf_n $end
$var reg 1 ) usb_txe_n $end
$var reg 8 * usb_data_in [7:0] $end
$var parameter 32 + DEPTH [31:0] $end
$var parameter 32 , MAIN_FRE [31:0] $end
$scope module u_usb_top $end
$var wire 1 - usb_clk_60m $end
$var wire 1 . sys_rst_n $end
$var wire 1 / usb_rxf_n $end
$var wire 1 0 usb_txe_n $end
$var wire 1 # usb_oe_n $end
$var wire 1 $ usb_rd_n $end
$var wire 1 % usb_wr_n $end
$var wire 8 1 usb_data_in [7:0] $end
$var wire 8 & usb_data_out [7:0] $end
$var wire 1 ' usb_siwu_n $end
$var wire 1 2 wr_en $end
$var wire 1 3 rd_en $end
$var wire 8 4 wr_data [7:0] $end
$var wire 8 5 rd_data [7:0] $end
$var wire 1 6 full $end
$var wire 1 7 empty $end
$var parameter 32 8 DEPTH [31:0] $end
$scope module u_usb_rw $end
$var wire 1 - usb_clk_60m $end
$var wire 1 . sys_rst_n $end
$var wire 1 / usb_rxf_n $end
$var wire 1 0 usb_txe_n $end
$var wire 1 # usb_oe_n $end
$var wire 1 $ usb_rd_n $end
$var wire 1 % usb_wr_n $end
$var wire 8 1 usb_data_in [7:0] $end
$var wire 8 & usb_data_out [7:0] $end
$var wire 1 ' usb_siwu_n $end
$var wire 1 2 wr_en $end
$var wire 1 3 rd_en $end
$var wire 8 4 wr_data [7:0] $end
$var wire 8 5 rd_data [7:0] $end
$var wire 1 7 empty $end
$var wire 1 6 full $end
$var reg 1 9 r_usb_rxf_n $end
$var reg 1 : r_usb_oe_n $end
$var reg 2 ; state_now [1:0] $end
$var reg 2 < state_next [1:0] $end
$var parameter 2 = IDLE [1:0] $end
$var parameter 2 > READ [1:0] $end
$var parameter 2 ? WRITE [1:0] $end
$upscope $end
$scope module u_syn_fifo $end
$var wire 1 - sys_clk $end
$var wire 1 . sys_rst $end
$var wire 1 2 wr_en $end
$var wire 8 4 wr_data [7:0] $end
$var wire 1 3 rd_en $end
$var reg 8 @ rd_data [7:0] $end
$var reg 1 A full $end
$var reg 1 B empty $end
$var reg 8 C wr_addr [7:0] $end
$var reg 8 D rd_addr [7:0] $end
$var reg 8 E data_cnt [7:0] $end
$var integer 32 F index $end
$var parameter 32 G DATA_WIDTH [31:0] $end
$var parameter 32 H DEPTH [31:0] $end
$var parameter 32 I ADDR_WIDTH [31:0] $end
$upscope $end
$upscope $end
$upscope $end
$enddefinitions $end
#0
$dumpvars
0!
0"
1#
1$
1%
bx &
1'
1(
1)
bx *
b100000000 +
b1100100 ,
0-
0.
1/
10
bx 1
02
03
bx 4
bx 5
x6
x7
b100000000 8
x9
x:
bx ;
b0 <
b0 =
b1 >
b10 ?
bx @
xA
xB
bx C
bx D
bx E
bx F
b1000 G
b100000000 H
b1000 I
$end
#5000
1!
1#
1$
1%
bz &
b0 *
1-
b0 1
bz 4
bz 5
06
07
09
0:
b0 ;
bz @
0A
0B
b0 C
b0 D
b0 E
b100000000 F
#10000
0!
0-
#15000
1!
1-
b100000000 F
#20000
0!
0-
#25000
1!
1-
b100000000 F
#30000
0!
0-
#35000
1!
1-
b100000000 F
#40000
0!
0-
#45000
1!
1-
b100000000 F
#50000
0!
1"
0-
1.
#55000
1!
1#
1$
1%
1-
17
19
1:
1B
#60000
0!
0-
#65000
1!
1-
#70000
0!
0-
#75000
1!
1-
#80000
0!
0-
#85000
1!
1-
#90000
0!
0-
#95000
1!
1-
#100000
0!
1#
0(
0-
0/
b1 <
#105000
1!
0#
1$
1%
1-
b0 4
09
b1 ;
#110000
0!
0-
#115000
1!
0$
1-
12
0:
#120000
0!
0-
#125000
1!
b1 *
1-
b1 1
b1 4
b1 C
b1 E
#130000
0!
0-
#135000
1!
1%
b10 *
1-
b10 1
b10 4
07
0B
b10 C
b10 E
#140000
0!
0-
#145000
1!
b11 *
1-
b11 1
b11 4
b11 C
b11 E
#150000
0!
0-
#155000
1!
b100 *
1-
b100 1
b100 4
b100 C
b100 E
#160000
0!
0-
#165000
1!
b101 *
1-
b101 1
b101 4
b101 C
b101 E
#170000
0!
0-
#175000
1!
b110 *
1-
b110 1
b110 4
b110 C
b110 E
#180000
0!
0-
#185000
1!
b111 *
1-
b111 1
b111 4
b111 C
b111 E
#190000
0!
0-
#195000
1!
b1000 *
1-
b1000 1
b1000 4
b1000 C
b1000 E
#200000
0!
0-
#205000
1!
b1001 *
1-
b1001 1
b1001 4
b1001 C
b1001 E
#210000
0!
0-
#215000
1!
b1010 *
1-
b1010 1
b1010 4
b1010 C
b1010 E
#220000
0!
0-
#225000
1!
b1011 *
1-
b1011 1
b1011 4
b1011 C
b1011 E
#230000
0!
0-
#235000
1!
b1100 *
1-
b1100 1
b1100 4
b1100 C
b1100 E
#240000
0!
0-
#245000
1!
b1101 *
1-
b1101 1
b1101 4
b1101 C
b1101 E
#250000
0!
0-
#255000
1!
b1110 *
1-
b1110 1
b1110 4
b1110 C
b1110 E
#260000
0!
0-
#265000
1!
b1111 *
1-
b1111 1
b1111 4
b1111 C
b1111 E
#270000
0!
0-
#275000
1!
b10000 *
1-
b10000 1
b10000 4
b10000 C
b10000 E
#280000
0!
0-
#285000
1!
b10001 *
1-
b10001 1
b10001 4
b10001 C
b10001 E
#290000
0!
0-
#295000
1!
b10010 *
1-
b10010 1
b10010 4
b10010 C
b10010 E
#300000
0!
0-
#305000
1!
b10011 *
1-
b10011 1
b10011 4
b10011 C
b10011 E
#310000
0!
0-
#315000
1!
b10100 *
1-
b10100 1
b10100 4
b10100 C
b10100 E
#320000
0!
0-
#325000
1!
b10101 *
1-
b10101 1
b10101 4
b10101 C
b10101 E
#330000
0!
0-
#335000
1!
b10110 *
1-
b10110 1
b10110 4
b10110 C
b10110 E
#340000
0!
0-
#345000
1!
b10111 *
1-
b10111 1
b10111 4
b10111 C
b10111 E
#350000
0!
0-
#355000
1!
b11000 *
1-
b11000 1
b11000 4
b11000 C
b11000 E
#360000
0!
0-
#365000
1!
b11001 *
1-
b11001 1
b11001 4
b11001 C
b11001 E
#370000
0!
0-
#375000
1!
b11010 *
1-
b11010 1
b11010 4
b11010 C
b11010 E
#380000
0!
0-
#385000
1!
b11011 *
1-
b11011 1
b11011 4
b11011 C
b11011 E
#390000
0!
0-
#395000
1!
b11100 *
1-
b11100 1
b11100 4
b11100 C
b11100 E
#400000
0!
0-
#405000
1!
b11101 *
1-
b11101 1
b11101 4
b11101 C
b11101 E
#410000
0!
0-
#415000
1!
b11110 *
1-
b11110 1
b11110 4
b11110 C
b11110 E
#420000
0!
0-
#425000
1!
b11111 *
1-
b11111 1
b11111 4
b11111 C
b11111 E
#430000
0!
0-
#435000
1!
b100000 *
1-
b100000 1
b100000 4
b100000 C
b100000 E
#440000
0!
0-
#445000
1!
b100001 *
1-
b100001 1
b100001 4
b100001 C
b100001 E
#450000
0!
0-
#455000
1!
b100010 *
1-
b100010 1
b100010 4
b100010 C
b100010 E
#460000
0!
0-
#465000
1!
b100011 *
1-
b100011 1
b100011 4
b100011 C
b100011 E
#470000
0!
0-
#475000
1!
b100100 *
1-
b100100 1
b100100 4
b100100 C
b100100 E
#480000
0!
0-
#485000
1!
b100101 *
1-
b100101 1
b100101 4
b100101 C
b100101 E
#490000
0!
0-
#495000
1!
b100110 *
1-
b100110 1
b100110 4
b100110 C
b100110 E
#500000
0!
0-
#505000
1!
b100111 *
1-
b100111 1
b100111 4
b100111 C
b100111 E
#510000
0!
0-
#515000
1!
b101000 *
1-
b101000 1
b101000 4
b101000 C
b101000 E
#520000
0!
0-
#525000
1!
b101001 *
1-
b101001 1
b101001 4
b101001 C
b101001 E
#530000
0!
0-
#535000
1!
b101010 *
1-
b101010 1
b101010 4
b101010 C
b101010 E
#540000
0!
0-
#545000
1!
b101011 *
1-
b101011 1
b101011 4
b101011 C
b101011 E
#550000
0!
0-
#555000
1!
b101100 *
1-
b101100 1
b101100 4
b101100 C
b101100 E
#560000
0!
0-
#565000
1!
b101101 *
1-
b101101 1
b101101 4
b101101 C
b101101 E
#570000
0!
0-
#575000
1!
b101110 *
1-
b101110 1
b101110 4
b101110 C
b101110 E
#580000
0!
0-
#585000
1!
b101111 *
1-
b101111 1
b101111 4
b101111 C
b101111 E
#590000
0!
0-
#595000
1!
b110000 *
1-
b110000 1
b110000 4
b110000 C
b110000 E
#600000
0!
0-
#605000
1!
b110001 *
1-
b110001 1
b110001 4
b110001 C
b110001 E
#610000
0!
0-
#615000
1!
b110010 *
1-
b110010 1
b110010 4
b110010 C
b110010 E
#620000
0!
0-
#625000
1!
b110011 *
1-
b110011 1
b110011 4
b110011 C
b110011 E
#630000
0!
0-
#635000
1!
b110100 *
1-
b110100 1
b110100 4
b110100 C
b110100 E
#640000
0!
0-
#645000
1!
b110101 *
1-
b110101 1
b110101 4
b110101 C
b110101 E
#650000
0!
0-
#655000
1!
b110110 *
1-
b110110 1
b110110 4
b110110 C
b110110 E
#660000
0!
0-
#665000
1!
b110111 *
1-
b110111 1
b110111 4
b110111 C
b110111 E
#670000
0!
0-
#675000
1!
b111000 *
1-
b111000 1
b111000 4
b111000 C
b111000 E
#680000
0!
0-
#685000
1!
b111001 *
1-
b111001 1
b111001 4
b111001 C
b111001 E
#690000
0!
0-
#695000
1!
b111010 *
1-
b111010 1
b111010 4
b111010 C
b111010 E
#700000
0!
0-
#705000
1!
b111011 *
1-
b111011 1
b111011 4
b111011 C
b111011 E
#710000
0!
0-
#715000
1!
b111100 *
1-
b111100 1
b111100 4
b111100 C
b111100 E
#720000
0!
0-
#725000
1!
b111101 *
1-
b111101 1
b111101 4
b111101 C
b111101 E
#730000
0!
0-
#735000
1!
b111110 *
1-
b111110 1
b111110 4
b111110 C
b111110 E
#740000
0!
0-
#745000
1!
b111111 *
1-
b111111 1
b111111 4
b111111 C
b111111 E
#750000
0!
0-
#755000
1!
b1000000 *
1-
b1000000 1
b1000000 4
b1000000 C
b1000000 E
#760000
0!
0-
#765000
1!
b1000001 *
1-
b1000001 1
b1000001 4
b1000001 C
b1000001 E
#770000
0!
0-
#775000
1!
b1000010 *
1-
b1000010 1
b1000010 4
b1000010 C
b1000010 E
#780000
0!
0-
#785000
1!
b1000011 *
1-
b1000011 1
b1000011 4
b1000011 C
b1000011 E
#790000
0!
0-
#795000
1!
b1000100 *
1-
b1000100 1
b1000100 4
b1000100 C
b1000100 E
#800000
0!
0-
#805000
1!
b1000101 *
1-
b1000101 1
b1000101 4
b1000101 C
b1000101 E
#810000
0!
0-
#815000
1!
b1000110 *
1-
b1000110 1
b1000110 4
b1000110 C
b1000110 E
#820000
0!
0-
#825000
1!
b1000111 *
1-
b1000111 1
b1000111 4
b1000111 C
b1000111 E
#830000
0!
0-
#835000
1!
b1001000 *
1-
b1001000 1
b1001000 4
b1001000 C
b1001000 E
#840000
0!
0-
#845000
1!
b1001001 *
1-
b1001001 1
b1001001 4
b1001001 C
b1001001 E
#850000
0!
0-
#855000
1!
b1001010 *
1-
b1001010 1
b1001010 4
b1001010 C
b1001010 E
#860000
0!
0-
#865000
1!
b1001011 *
1-
b1001011 1
b1001011 4
b1001011 C
b1001011 E
#870000
0!
0-
#875000
1!
b1001100 *
1-
b1001100 1
b1001100 4
b1001100 C
b1001100 E
#880000
0!
0-
#885000
1!
b1001101 *
1-
b1001101 1
b1001101 4
b1001101 C
b1001101 E
#890000
0!
0-
#895000
1!
b1001110 *
1-
b1001110 1
b1001110 4
b1001110 C
b1001110 E
#900000
0!
0-
#905000
1!
b1001111 *
1-
b1001111 1
b1001111 4
b1001111 C
b1001111 E
#910000
0!
0-
#915000
1!
b1010000 *
1-
b1010000 1
b1010000 4
b1010000 C
b1010000 E
#920000
0!
0-
#925000
1!
b1010001 *
1-
b1010001 1
b1010001 4
b1010001 C
b1010001 E
#930000
0!
0-
#935000
1!
b1010010 *
1-
b1010010 1
b1010010 4
b1010010 C
b1010010 E
#940000
0!
0-
#945000
1!
b1010011 *
1-
b1010011 1
b1010011 4
b1010011 C
b1010011 E
#950000
0!
0-
#955000
1!
b1010100 *
1-
b1010100 1
b1010100 4
b1010100 C
b1010100 E
#960000
0!
0-
#965000
1!
b1010101 *
1-
b1010101 1
b1010101 4
b1010101 C
b1010101 E
#970000
0!
0-
#975000
1!
b1010110 *
1-
b1010110 1
b1010110 4
b1010110 C
b1010110 E
#980000
0!
0-
#985000
1!
b1010111 *
1-
b1010111 1
b1010111 4
b1010111 C
b1010111 E
#990000
0!
0-
#995000
1!
b1011000 *
1-
b1011000 1
b1011000 4
b1011000 C
b1011000 E
#1000000
0!
0-
#1005000
1!
b1011001 *
1-
b1011001 1
b1011001 4
b1011001 C
b1011001 E
#1010000
0!
0-
#1015000
1!
b1011010 *
1-
b1011010 1
b1011010 4
b1011010 C
b1011010 E
#1020000
0!
0-
#1025000
1!
b1011011 *
1-
b1011011 1
b1011011 4
b1011011 C
b1011011 E
#1030000
0!
0-
#1035000
1!
b1011100 *
1-
b1011100 1
b1011100 4
b1011100 C
b1011100 E
#1040000
0!
0-
#1045000
1!
b1011101 *
1-
b1011101 1
b1011101 4
b1011101 C
b1011101 E
#1050000
0!
0-
#1055000
1!
b1011110 *
1-
b1011110 1
b1011110 4
b1011110 C
b1011110 E
#1060000
0!
0-
#1065000
1!
b1011111 *
1-
b1011111 1
b1011111 4
b1011111 C
b1011111 E
#1070000
0!
0-
#1075000
1!
b1100000 *
1-
b1100000 1
b1100000 4
b1100000 C
b1100000 E
#1080000
0!
0-
#1085000
1!
b1100001 *
1-
b1100001 1
b1100001 4
b1100001 C
b1100001 E
#1090000
0!
0-
#1095000
1!
b1100010 *
1-
b1100010 1
b1100010 4
b1100010 C
b1100010 E
#1100000
0!
0-
#1105000
1!
b1100011 *
1-
b1100011 1
b1100011 4
b1100011 C
b1100011 E
#1110000
0!
0-
#1115000
1!
b1100100 *
1-
b1100100 1
b1100100 4
b1100100 C
b1100100 E
#1120000
0!
0-
#1125000
1!
b1100101 *
1-
b1100101 1
b1100101 4
b1100101 C
b1100101 E
#1130000
0!
0-
#1135000
1!
b1100110 *
1-
b1100110 1
b1100110 4
b1100110 C
b1100110 E
#1140000
0!
0-
#1145000
1!
b1100111 *
1-
b1100111 1
b1100111 4
b1100111 C
b1100111 E
#1150000
0!
0-
#1155000
1!
b1101000 *
1-
b1101000 1
b1101000 4
b1101000 C
b1101000 E
#1160000
0!
0-
#1165000
1!
b1101001 *
1-
b1101001 1
b1101001 4
b1101001 C
b1101001 E
#1170000
0!
0-
#1175000
1!
b1101010 *
1-
b1101010 1
b1101010 4
b1101010 C
b1101010 E
#1180000
0!
0-
#1185000
1!
b1101011 *
1-
b1101011 1
b1101011 4
b1101011 C
b1101011 E
#1190000
0!
0-
#1195000
1!
b1101100 *
1-
b1101100 1
b1101100 4
b1101100 C
b1101100 E
#1200000
0!
0-
#1205000
1!
b1101101 *
1-
b1101101 1
b1101101 4
b1101101 C
b1101101 E
#1210000
0!
0-
#1215000
1!
b1101110 *
1-
b1101110 1
b1101110 4
b1101110 C
b1101110 E
#1220000
0!
0-
#1225000
1!
b1101111 *
1-
b1101111 1
b1101111 4
b1101111 C
b1101111 E
#1230000
0!
0-
#1235000
1!
b1110000 *
1-
b1110000 1
b1110000 4
b1110000 C
b1110000 E
#1240000
0!
0-
#1245000
1!
b1110001 *
1-
b1110001 1
b1110001 4
b1110001 C
b1110001 E
#1250000
0!
0-
#1255000
1!
b1110010 *
1-
b1110010 1
b1110010 4
b1110010 C
b1110010 E
#1260000
0!
0-
#1265000
1!
b1110011 *
1-
b1110011 1
b1110011 4
b1110011 C
b1110011 E
#1270000
0!
0-
#1275000
1!
b1110100 *
1-
b1110100 1
b1110100 4
b1110100 C
b1110100 E
#1280000
0!
0-
#1285000
1!
b1110101 *
1-
b1110101 1
b1110101 4
b1110101 C
b1110101 E
#1290000
0!
0-
#1295000
1!
b1110110 *
1-
b1110110 1
b1110110 4
b1110110 C
b1110110 E
#1300000
0!
0-
#1305000
1!
b1110111 *
1-
b1110111 1
b1110111 4
b1110111 C
b1110111 E
#1310000
0!
0-
#1315000
1!
b1111000 *
1-
b1111000 1
b1111000 4
b1111000 C
b1111000 E
#1320000
0!
0-
#1325000
1!
b1111001 *
1-
b1111001 1
b1111001 4
b1111001 C
b1111001 E
#1330000
0!
0-
#1335000
1!
b1111010 *
1-
b1111010 1
b1111010 4
b1111010 C
b1111010 E
#1340000
0!
0-
#1345000
1!
b1111011 *
1-
b1111011 1
b1111011 4
b1111011 C
b1111011 E
#1350000
0!
0-
#1355000
1!
b1111100 *
1-
b1111100 1
b1111100 4
b1111100 C
b1111100 E
#1360000
0!
0-
#1365000
1!
b1111101 *
1-
b1111101 1
b1111101 4
b1111101 C
b1111101 E
#1370000
0!
0-
#1375000
1!
b1111110 *
1-
b1111110 1
b1111110 4
b1111110 C
b1111110 E
#1380000
0!
0-
#1385000
1!
b1111111 *
1-
b1111111 1
b1111111 4
b1111111 C
b1111111 E
#1390000
0!
0-
#1395000
1!
b10000000 *
1-
b10000000 1
b10000000 4
b10000000 C
b10000000 E
#1400000
0!
0-
#1405000
1!
b10000001 *
1-
b10000001 1
b10000001 4
b10000001 C
b10000001 E
#1410000
0!
0-
#1415000
1!
b10000010 *
1-
b10000010 1
b10000010 4
b10000010 C
b10000010 E
#1420000
0!
0-
#1425000
1!
b10000011 *
1-
b10000011 1
b10000011 4
b10000011 C
b10000011 E
#1430000
0!
0-
#1435000
1!
b10000100 *
1-
b10000100 1
b10000100 4
b10000100 C
b10000100 E
#1440000
0!
0-
#1445000
1!
b10000101 *
1-
b10000101 1
b10000101 4
b10000101 C
b10000101 E
#1450000
0!
0-
#1455000
1!
b10000110 *
1-
b10000110 1
b10000110 4
b10000110 C
b10000110 E
#1460000
0!
0-
#1465000
1!
b10000111 *
1-
b10000111 1
b10000111 4
b10000111 C
b10000111 E
#1470000
0!
0-
#1475000
1!
b10001000 *
1-
b10001000 1
b10001000 4
b10001000 C
b10001000 E
#1480000
0!
0-
#1485000
1!
b10001001 *
1-
b10001001 1
b10001001 4
b10001001 C
b10001001 E
#1490000
0!
0-
#1495000
1!
b10001010 *
1-
b10001010 1
b10001010 4
b10001010 C
b10001010 E
#1500000
0!
0-
#1505000
1!
b10001011 *
1-
b10001011 1
b10001011 4
b10001011 C
b10001011 E
#1510000
0!
0-
#1515000
1!
b10001100 *
1-
b10001100 1
b10001100 4
b10001100 C
b10001100 E
#1520000
0!
0-
#1525000
1!
b10001101 *
1-
b10001101 1
b10001101 4
b10001101 C
b10001101 E
#1530000
0!
0-
#1535000
1!
b10001110 *
1-
b10001110 1
b10001110 4
b10001110 C
b10001110 E
#1540000
0!
0-
#1545000
1!
b10001111 *
1-
b10001111 1
b10001111 4
b10001111 C
b10001111 E
#1550000
0!
0-
#1555000
1!
b10010000 *
1-
b10010000 1
b10010000 4
b10010000 C
b10010000 E
#1560000
0!
0-
#1565000
1!
b10010001 *
1-
b10010001 1
b10010001 4
b10010001 C
b10010001 E
#1570000
0!
0-
#1575000
1!
b10010010 *
1-
b10010010 1
b10010010 4
b10010010 C
b10010010 E
#1580000
0!
0-
#1585000
1!
b10010011 *
1-
b10010011 1
b10010011 4
b10010011 C
b10010011 E
#1590000
0!
0-
#1595000
1!
b10010100 *
1-
b10010100 1
b10010100 4
b10010100 C
b10010100 E
#1600000
0!
0-
#1605000
1!
b10010101 *
1-
b10010101 1
b10010101 4
b10010101 C
b10010101 E
#1610000
0!
0-
#1615000
1!
b10010110 *
1-
b10010110 1
b10010110 4
b10010110 C
b10010110 E
#1620000
0!
0-
#1625000
1!
b10010111 *
1-
b10010111 1
b10010111 4
b10010111 C
b10010111 E
#1630000
0!
0-
#1635000
1!
b10011000 *
1-
b10011000 1
b10011000 4
b10011000 C
b10011000 E
#1640000
0!
0-
#1645000
1!
b10011001 *
1-
b10011001 1
b10011001 4
b10011001 C
b10011001 E
#1650000
0!
0-
#1655000
1!
b10011010 *
1-
b10011010 1
b10011010 4
b10011010 C
b10011010 E
#1660000
0!
0-
#1665000
1!
b10011011 *
1-
b10011011 1
b10011011 4
b10011011 C
b10011011 E
#1670000
0!
0-
#1675000
1!
b10011100 *
1-
b10011100 1
b10011100 4
b10011100 C
b10011100 E
#1680000
0!
0-
#1685000
1!
b10011101 *
1-
b10011101 1
b10011101 4
b10011101 C
b10011101 E
#1690000
0!
0-
#1695000
1!
b10011110 *
1-
b10011110 1
b10011110 4
b10011110 C
b10011110 E
#1700000
0!
0-
#1705000
1!
b10011111 *
1-
b10011111 1
b10011111 4
b10011111 C
b10011111 E
#1710000
0!
0-
#1715000
1!
b10100000 *
1-
b10100000 1
b10100000 4
b10100000 C
b10100000 E
#1720000
0!
0-
#1725000
1!
b10100001 *
1-
b10100001 1
b10100001 4
b10100001 C
b10100001 E
#1730000
0!
0-
#1735000
1!
b10100010 *
1-
b10100010 1
b10100010 4
b10100010 C
b10100010 E
#1740000
0!
0-
#1745000
1!
b10100011 *
1-
b10100011 1
b10100011 4
b10100011 C
b10100011 E
#1750000
0!
0-
#1755000
1!
b10100100 *
1-
b10100100 1
b10100100 4
b10100100 C
b10100100 E
#1760000
0!
0-
#1765000
1!
b10100101 *
1-
b10100101 1
b10100101 4
b10100101 C
b10100101 E
#1770000
0!
0-
#1775000
1!
b10100110 *
1-
b10100110 1
b10100110 4
b10100110 C
b10100110 E
#1780000
0!
0-
#1785000
1!
b10100111 *
1-
b10100111 1
b10100111 4
b10100111 C
b10100111 E
#1790000
0!
0-
#1795000
1!
b10101000 *
1-
b10101000 1
b10101000 4
b10101000 C
b10101000 E
#1800000
0!
0-
#1805000
1!
b10101001 *
1-
b10101001 1
b10101001 4
b10101001 C
b10101001 E
#1810000
0!
0-
#1815000
1!
b10101010 *
1-
b10101010 1
b10101010 4
b10101010 C
b10101010 E
#1820000
0!
0-
#1825000
1!
b10101011 *
1-
b10101011 1
b10101011 4
b10101011 C
b10101011 E
#1830000
0!
0-
#1835000
1!
b10101100 *
1-
b10101100 1
b10101100 4
b10101100 C
b10101100 E
#1840000
0!
0-
#1845000
1!
b10101101 *
1-
b10101101 1
b10101101 4
b10101101 C
b10101101 E
#1850000
0!
0-
#1855000
1!
b10101110 *
1-
b10101110 1
b10101110 4
b10101110 C
b10101110 E
#1860000
0!
0-
#1865000
1!
b10101111 *
1-
b10101111 1
b10101111 4
b10101111 C
b10101111 E
#1870000
0!
0-
#1875000
1!
b10110000 *
1-
b10110000 1
b10110000 4
b10110000 C
b10110000 E
#1880000
0!
0-
#1885000
1!
b10110001 *
1-
b10110001 1
b10110001 4
b10110001 C
b10110001 E
#1890000
0!
0-
#1895000
1!
b10110010 *
1-
b10110010 1
b10110010 4
b10110010 C
b10110010 E
#1900000
0!
0-
#1905000
1!
b10110011 *
1-
b10110011 1
b10110011 4
b10110011 C
b10110011 E
#1910000
0!
0-
#1915000
1!
b10110100 *
1-
b10110100 1
b10110100 4
b10110100 C
b10110100 E
#1920000
0!
0-
#1925000
1!
b10110101 *
1-
b10110101 1
b10110101 4
b10110101 C
b10110101 E
#1930000
0!
0-
#1935000
1!
b10110110 *
1-
b10110110 1
b10110110 4
b10110110 C
b10110110 E
#1940000
0!
0-
#1945000
1!
b10110111 *
1-
b10110111 1
b10110111 4
b10110111 C
b10110111 E
#1950000
0!
0-
#1955000
1!
b10111000 *
1-
b10111000 1
b10111000 4
b10111000 C
b10111000 E
#1960000
0!
0-
#1965000
1!
b10111001 *
1-
b10111001 1
b10111001 4
b10111001 C
b10111001 E
#1970000
0!
0-
#1975000
1!
b10111010 *
1-
b10111010 1
b10111010 4
b10111010 C
b10111010 E
#1980000
0!
0-
#1985000
1!
b10111011 *
1-
b10111011 1
b10111011 4
b10111011 C
b10111011 E
#1990000
0!
0-
#1995000
1!
b10111100 *
1-
b10111100 1
b10111100 4
b10111100 C
b10111100 E
